"name","what","group1","group2","total","up","down"
"day8_embryo","diff.exp","E8.5","embryo.E7.5","1068","718","350"
"day9_embryo","diff.exp","V.E9.5","embryo.E7.5","1532","946","586"
"day12_embryo","diff.exp","V.E12.5","embryo.E7.5","2167","1421","746"
"early_embryo","union","day8_embryo.up,day9_embryo.up,day12_embryo.up","","1703","",""
"day8_adult","diff.exp","E8.5","V.adult","4103","2275","1828"
"day9_adult","diff.exp","V.E9.5","V.adult","3536","1922","1614"
"day12_adult","diff.exp","V.E12.5","V.adult","2285","1304","981"
"early_adult","union","day8_adult.up,day9_adult.up,day12_adult.up","","2731","",""
"early_only","intersect","early_embryo,early_adult","","397","",""
"params","params","0.001","3","","",""
