"name","what","group1","group2","total","up","down"
"day2_day0","diff.exp","WT.day2","WT.day0","943","630","313"
"day2_day10","diff.exp","WT.day2","WT.day10","3407","1258","2149"
"day2_up","intersect","day2_day0.up","day2_day10.up","138","",""
"params","params","0.01","2","","",""
